[
    {
      "Year": 2006,
      "Make": "Lamborghini",
      "Model": "Gallardo",
      "Category": "Coupe, Convertible",
      "url":"https://images5.alphacoders.com/289/289435.jpg",
      "createdAt": "2020-01-27T21:40:52.853Z",
      "updatedAt": "2020-01-27T21:40:52.853Z"
    },
    {
      "Year": 2006,
      "Make": "Lamborghini",
      "Model": "Murcielago",
      "url":"https://www.carpixel.net/w/3086ba4f84216ad0d647d2f2f6755d3a/lamborghini-murcielago-lp-640-roadster-car-wallpaper-47172.jpg",
      "Category": "Convertible, Coupe",
      "createdAt": "2020-01-27T21:40:52.853Z",
      "updatedAt": "2020-01-27T21:40:52.853Z"
    },
    {
      "Year": 2007,
      "Make": "Lamborghini",
      "Model": "Gallardo",
      "url":"https://images2.alphacoders.com/542/thumb-1920-542116.jpg",
      "Category": "Convertible, Coupe",
      "createdAt": "2020-01-27T21:40:52.853Z",
      "updatedAt": "2020-01-27T21:40:52.853Z"
    },
    {
      "Year": 2007,
      "Make": "Lamborghini",
      "Model": "Murcielago",
      "url":"https://vistapointe.net/images/lamborghini-murci%C3%A9lago-5.jpg",
      "Category": "Convertible, Coupe",
      "createdAt": "2020-01-27T21:40:52.853Z",
      "updatedAt": "2020-01-27T21:40:52.853Z"
    },
    {
      "Year": 2008,
      "Make": "Lamborghini",
      "Model": "Gallardo",
      "url":"https://wallpaperaccess.com/full/409240.jpg",
      "Category": "Convertible, Coupe",
      "createdAt": "2020-01-27T21:40:52.853Z",
      "updatedAt": "2020-01-27T21:40:52.853Z"
    },
    {
      "Year": 2008,
      "Make": "Lamborghini",
      "Model": "Murcielago LP640",
      "url":"https://www.mad4wheels.com/img/free-car-images/mobile/1845/lamborghini-murcielago-lp640-roadster-versace-2008-229944.jpg",
      "Category": "Coupe, Convertible",
      "createdAt": "2020-01-27T21:40:52.853Z",
      "updatedAt": "2020-01-27T21:40:52.853Z"
    },
    {
      "Year": 2009,
      "Make": "Lamborghini",
      "Model": "Gallardo",
      "url":"http://images2.fanpop.com/images/photos/6900000/Lamborghini-Gallardo-LP560-4-Spyder-2009-lamborghini-6967959-1600-1200.jpg",
      "Category": "Convertible, Coupe",
      "createdAt": "2020-01-27T21:40:52.853Z",
      "updatedAt": "2020-01-27T21:40:52.853Z"
    },
    {
      "Year": 2009,
      "Make": "Lamborghini",
      "Model": "Murcielago",
      "url":"https://www.carpixel.net/w/86d9aec279c84cdd2841c0ee3779767c/lamborghini-murcielago-lp-670-4-superveloce-car-wallpaper-47185.jpg",
      "Category": "Convertible, Coupe",
      "createdAt": "2020-01-27T21:40:52.853Z",
      "updatedAt": "2020-01-27T21:40:52.853Z"
    },
    {
      "Year": 2010,
      "Make": "Lamborghini",
      "Model": "Gallardo",
      "Category": "Coupe, Convertible",
      "url":"https://www.carpixel.net/w/a281def1b1f8c2ca7595b34f1e2dc148/lamborghini-gallardo-lp-550-2-wallpaper-hd-47136.jpg",
      "createdAt": "2020-01-27T21:40:52.853Z",
      "updatedAt": "2020-01-27T21:40:52.853Z"
    },
    {
      "Year": 2010,
      "Make": "Lamborghini",
      "Model": "Murcielago",
      "url":"https://i.pinimg.com/originals/a7/93/4c/a7934c80952ce7afb6e196537737d6a5.jpg",
      "Category": "Coupe, Convertible",
      "createdAt": "2020-01-27T21:40:52.853Z",
      "updatedAt": "2020-01-27T21:40:52.853Z"
    }
]
